simulation/qsim/ProyectoVGA.msim.vcd
$comment
	File created using the following command:
		vcd file ProyectoVGA.msim.vcd -direction
$end
$date
	Sun Jun 23 19:26:59 2024
$end
$version
	ModelSim Version 10.1d
$end
$timescale
	1ps
$end
$scope module mainVGA_vlg_vec_tst $end
$var reg 1 ! clk $end
$var reg 1 " reset $end
$var wire 1 # VGA_BLANK_HS $end
$var wire 1 $ VGA_BLANK_VS $end
$var wire 1 % VGA_CLK $end
$var wire 1 & VGA_HS $end
$var wire 1 ' VGA_SYNC $end
$var wire 1 ( VGA_VS $end
$var wire 1 ) sampler $end
$scope module i1 $end
$var wire 1 * gnd $end
$var wire 1 + vcc $end
$var wire 1 , unknown $end
$var tri1 1 - devclrn $end
$var tri1 1 . devpor $end
$var tri1 1 / devoe $end
$var wire 1 0 VGAHS|Add0~10_combout $end
$var wire 1 1 VGAHS|Add0~16_combout $end
$var wire 1 2 VGAHS|Add0~20_combout $end
$var wire 1 3 VGAHS|Add0~56_combout $end
$var wire 1 4 VGAVS|Add0~12_combout $end
$var wire 1 5 VGAVS|Add0~16_combout $end
$var wire 1 6 VGAVS|Add0~38_combout $end
$var wire 1 7 VGAVS|Add0~48_combout $end
$var wire 1 8 VGAVS|Add0~52_combout $end
$var wire 1 9 VGAVS|Add0~61 $end
$var wire 1 : VGAVS|Add0~62_combout $end
$var wire 1 ; VGAHS|Equal3~1_combout $end
$var wire 1 < VGAVS|Equal3~0_combout $end
$var wire 1 = VGAVS|CNT_END~0_combout $end
$var wire 1 > VGAVS|CNT_END~1_combout $end
$var wire 1 ? VGAVS|cnt~3_combout $end
$var wire 1 @ clk~combout $end
$var wire 1 A clockdiv|Equal1~clkctrl_outclk $end
$var wire 1 B reset~combout $end
$var wire 1 C VGAHS|state.reset_state~feeder_combout $end
$var wire 1 D VGAHS|state.reset_state~regout $end
$var wire 1 E VGAHS|process_2~0_combout $end
$var wire 1 F VGAHS|Add0~13 $end
$var wire 1 G VGAHS|Add0~14_combout $end
$var wire 1 H VGAHS|Add0~15 $end
$var wire 1 I VGAHS|Add0~17 $end
$var wire 1 J VGAHS|Add0~18_combout $end
$var wire 1 K VGAHS|Add0~19 $end
$var wire 1 L VGAHS|Add0~21 $end
$var wire 1 M VGAHS|Add0~22_combout $end
$var wire 1 N VGAHS|Add0~23 $end
$var wire 1 O VGAHS|Add0~25 $end
$var wire 1 P VGAHS|Add0~26_combout $end
$var wire 1 Q VGAHS|Add0~27 $end
$var wire 1 R VGAHS|Add0~28_combout $end
$var wire 1 S VGAHS|Add0~29 $end
$var wire 1 T VGAHS|Add0~30_combout $end
$var wire 1 U VGAHS|Add0~31 $end
$var wire 1 V VGAHS|Add0~32_combout $end
$var wire 1 W VGAHS|Add0~33 $end
$var wire 1 X VGAHS|Add0~34_combout $end
$var wire 1 Y VGAHS|Add0~35 $end
$var wire 1 Z VGAHS|Add0~36_combout $end
$var wire 1 [ VGAHS|Add0~37 $end
$var wire 1 \ VGAHS|Add0~39 $end
$var wire 1 ] VGAHS|Add0~40_combout $end
$var wire 1 ^ VGAHS|Add0~41 $end
$var wire 1 _ VGAHS|Add0~43 $end
$var wire 1 ` VGAHS|Add0~45 $end
$var wire 1 a VGAHS|Add0~46_combout $end
$var wire 1 b VGAHS|Add0~47 $end
$var wire 1 c VGAHS|Add0~49 $end
$var wire 1 d VGAHS|Add0~50_combout $end
$var wire 1 e VGAHS|Add0~51 $end
$var wire 1 f VGAHS|Add0~53 $end
$var wire 1 g VGAHS|Add0~54_combout $end
$var wire 1 h VGAHS|Add0~55 $end
$var wire 1 i VGAHS|Add0~57 $end
$var wire 1 j VGAHS|Add0~58_combout $end
$var wire 1 k VGAHS|Add0~59 $end
$var wire 1 l VGAHS|Add0~60_combout $end
$var wire 1 m VGAHS|Add0~61 $end
$var wire 1 n VGAHS|Add0~62_combout $end
$var wire 1 o VGAHS|Equal3~6_combout $end
$var wire 1 p VGAHS|Add0~48_combout $end
$var wire 1 q VGAHS|Add0~52_combout $end
$var wire 1 r VGAHS|Equal3~5_combout $end
$var wire 1 s VGAHS|Add0~44_combout $end
$var wire 1 t VGAHS|Add0~42_combout $end
$var wire 1 u VGAHS|Equal3~8_combout $end
$var wire 1 v VGAHS|cnt~0_combout $end
$var wire 1 w VGAHS|cnt~1_combout $end
$var wire 1 x VGAHS|cnt~2_combout $end
$var wire 1 y VGAHS|cnt~3_combout $end
$var wire 1 z VGAHS|Add0~1 $end
$var wire 1 { VGAHS|Add0~3 $end
$var wire 1 | VGAHS|Add0~4_combout $end
$var wire 1 } VGAHS|Add0~5 $end
$var wire 1 ~ VGAHS|Add0~7 $end
$var wire 1 !! VGAHS|Add0~8_combout $end
$var wire 1 "! VGAHS|Add0~9 $end
$var wire 1 #! VGAHS|Add0~11 $end
$var wire 1 $! VGAHS|Add0~12_combout $end
$var wire 1 %! VGAHS|Equal3~0_combout $end
$var wire 1 &! VGAHS|Add0~24_combout $end
$var wire 1 '! VGAHS|Equal3~2_combout $end
$var wire 1 (! VGAHS|Add0~38_combout $end
$var wire 1 )! VGAHS|Equal3~3_combout $end
$var wire 1 *! VGAHS|Equal3~4_combout $end
$var wire 1 +! VGAHS|Add0~2_combout $end
$var wire 1 ,! VGAHS|Add0~0_combout $end
$var wire 1 -! VGAHS|Add0~6_combout $end
$var wire 1 .! VGAHS|CNT_END~0_combout $end
$var wire 1 /! VGAHS|Equal3~7_combout $end
$var wire 1 0! VGAHS|CNT_END~1_combout $end
$var wire 1 1! VGAHS|CNT_END~2_combout $end
$var wire 1 2! VGAHS|CNT_END~regout $end
$var wire 1 3! VGAHS|state.B_state~feeder_combout $end
$var wire 1 4! VGAHS|state.B_state~regout $end
$var wire 1 5! VGAHS|state.C_state~feeder_combout $end
$var wire 1 6! VGAHS|state.C_state~regout $end
$var wire 1 7! VGAHS|state.D_state~regout $end
$var wire 1 8! VGAHS|Selector0~0_combout $end
$var wire 1 9! VGAHS|state.A_state~regout $end
$var wire 1 :! VGAVS|enable_out_2~feeder_combout $end
$var wire 1 ;! VGAVS|state.reset_state~feeder_combout $end
$var wire 1 <! VGAHS|Equal3~9_combout $end
$var wire 1 =! VGAHS|Equal3~10_combout $end
$var wire 1 >! VGAHS|enable_out_1~regout $end
$var wire 1 ?! VGAVS|state.reset_state~regout $end
$var wire 1 @! VGAVS|process_2~0_combout $end
$var wire 1 A! VGAVS|process_2~1_combout $end
$var wire 1 B! VGAVS|enable_out_2~regout $end
$var wire 1 C! VGA_HS~0_combout $end
$var wire 1 D! VGAVS|state.B_state~feeder_combout $end
$var wire 1 E! VGAVS|state.B_state~0_combout $end
$var wire 1 F! VGAVS|state.B_state~regout $end
$var wire 1 G! VGAVS|state.C_state~regout $end
$var wire 1 H! VGAVS|state.D_state~feeder_combout $end
$var wire 1 I! VGAVS|state.D_state~regout $end
$var wire 1 J! VGAVS|Add0~33 $end
$var wire 1 K! VGAVS|Add0~34_combout $end
$var wire 1 L! VGAVS|Add0~35 $end
$var wire 1 M! VGAVS|Add0~36_combout $end
$var wire 1 N! VGAVS|Add0~37 $end
$var wire 1 O! VGAVS|Add0~39 $end
$var wire 1 P! VGAVS|Add0~40_combout $end
$var wire 1 Q! VGAVS|Add0~41 $end
$var wire 1 R! VGAVS|Add0~43 $end
$var wire 1 S! VGAVS|Add0~45 $end
$var wire 1 T! VGAVS|Add0~46_combout $end
$var wire 1 U! VGAVS|Add0~47 $end
$var wire 1 V! VGAVS|Add0~49 $end
$var wire 1 W! VGAVS|Add0~50_combout $end
$var wire 1 X! VGAVS|Add0~51 $end
$var wire 1 Y! VGAVS|Add0~53 $end
$var wire 1 Z! VGAVS|Add0~54_combout $end
$var wire 1 [! VGAVS|Add0~55 $end
$var wire 1 \! VGAVS|Add0~57 $end
$var wire 1 ]! VGAVS|Add0~58_combout $end
$var wire 1 ^! VGAVS|Add0~59 $end
$var wire 1 _! VGAVS|Add0~60_combout $end
$var wire 1 `! VGAVS|Add0~44_combout $end
$var wire 1 a! VGAVS|Equal3~5_combout $end
$var wire 1 b! VGAVS|Add0~56_combout $end
$var wire 1 c! VGAVS|Equal3~6_combout $end
$var wire 1 d! VGAVS|Equal3~7_combout $end
$var wire 1 e! VGAVS|cnt~1_combout $end
$var wire 1 f! VGAVS|cnt~2_combout $end
$var wire 1 g! VGAVS|Add0~1 $end
$var wire 1 h! VGAVS|Add0~2_combout $end
$var wire 1 i! VGAVS|Add0~3 $end
$var wire 1 j! VGAVS|Add0~5 $end
$var wire 1 k! VGAVS|Add0~7 $end
$var wire 1 l! VGAVS|Add0~8_combout $end
$var wire 1 m! VGAVS|Add0~9 $end
$var wire 1 n! VGAVS|Add0~11 $end
$var wire 1 o! VGAVS|Add0~13 $end
$var wire 1 p! VGAVS|Add0~14_combout $end
$var wire 1 q! VGAVS|Add0~15 $end
$var wire 1 r! VGAVS|Add0~17 $end
$var wire 1 s! VGAVS|Add0~19 $end
$var wire 1 t! VGAVS|Add0~21 $end
$var wire 1 u! VGAVS|Add0~22_combout $end
$var wire 1 v! VGAVS|Add0~23 $end
$var wire 1 w! VGAVS|Add0~25 $end
$var wire 1 x! VGAVS|Add0~26_combout $end
$var wire 1 y! VGAVS|Add0~27 $end
$var wire 1 z! VGAVS|Add0~28_combout $end
$var wire 1 {! VGAVS|Add0~29 $end
$var wire 1 |! VGAVS|Add0~30_combout $end
$var wire 1 }! VGAVS|Add0~31 $end
$var wire 1 ~! VGAVS|Add0~32_combout $end
$var wire 1 !" VGAVS|Equal3~2_combout $end
$var wire 1 "" VGAVS|Add0~20_combout $end
$var wire 1 #" VGAVS|Add0~24_combout $end
$var wire 1 $" VGAVS|Equal3~1_combout $end
$var wire 1 %" VGAVS|Add0~42_combout $end
$var wire 1 &" VGAVS|Equal3~3_combout $end
$var wire 1 '" VGAVS|Equal3~4_combout $end
$var wire 1 (" VGAVS|cnt~0_combout $end
$var wire 1 )" VGAVS|Add0~6_combout $end
$var wire 1 *" VGAVS|Add0~4_combout $end
$var wire 1 +" VGAVS|Add0~0_combout $end
$var wire 1 ," VGAVS|Add0~10_combout $end
$var wire 1 -" VGAVS|Add0~18_combout $end
$var wire 1 ." VGAVS|Equal3~8_combout $end
$var wire 1 /" VGAVS|Equal3~9_combout $end
$var wire 1 0" VGAVS|CNT_END~2_combout $end
$var wire 1 1" VGAVS|CNT_END~regout $end
$var wire 1 2" VGAVS|Selector0~0_combout $end
$var wire 1 3" VGAVS|state.A_state~regout $end
$var wire 1 4" VGA_VS~0_combout $end
$var wire 1 5" VGA_BLANK_HS~0_combout $end
$var wire 1 6" VGA_BLANK_VS~0_combout $end
$var wire 1 7" clockdiv|cnt[0]~0_combout $end
$var wire 1 8" clockdiv|Equal1~combout $end
$var wire 1 9" clockdiv|cnt [1] $end
$var wire 1 :" clockdiv|cnt [0] $end
$var wire 1 ;" VGAVS|cnt [31] $end
$var wire 1 <" VGAVS|cnt [30] $end
$var wire 1 =" VGAVS|cnt [29] $end
$var wire 1 >" VGAVS|cnt [28] $end
$var wire 1 ?" VGAVS|cnt [27] $end
$var wire 1 @" VGAVS|cnt [26] $end
$var wire 1 A" VGAVS|cnt [25] $end
$var wire 1 B" VGAVS|cnt [24] $end
$var wire 1 C" VGAVS|cnt [23] $end
$var wire 1 D" VGAVS|cnt [22] $end
$var wire 1 E" VGAVS|cnt [21] $end
$var wire 1 F" VGAVS|cnt [20] $end
$var wire 1 G" VGAVS|cnt [19] $end
$var wire 1 H" VGAVS|cnt [18] $end
$var wire 1 I" VGAVS|cnt [17] $end
$var wire 1 J" VGAVS|cnt [16] $end
$var wire 1 K" VGAVS|cnt [15] $end
$var wire 1 L" VGAVS|cnt [14] $end
$var wire 1 M" VGAVS|cnt [13] $end
$var wire 1 N" VGAVS|cnt [12] $end
$var wire 1 O" VGAVS|cnt [11] $end
$var wire 1 P" VGAVS|cnt [10] $end
$var wire 1 Q" VGAVS|cnt [9] $end
$var wire 1 R" VGAVS|cnt [8] $end
$var wire 1 S" VGAVS|cnt [7] $end
$var wire 1 T" VGAVS|cnt [6] $end
$var wire 1 U" VGAVS|cnt [5] $end
$var wire 1 V" VGAVS|cnt [4] $end
$var wire 1 W" VGAVS|cnt [3] $end
$var wire 1 X" VGAVS|cnt [2] $end
$var wire 1 Y" VGAVS|cnt [1] $end
$var wire 1 Z" VGAVS|cnt [0] $end
$var wire 1 [" VGAHS|cnt [31] $end
$var wire 1 \" VGAHS|cnt [30] $end
$var wire 1 ]" VGAHS|cnt [29] $end
$var wire 1 ^" VGAHS|cnt [28] $end
$var wire 1 _" VGAHS|cnt [27] $end
$var wire 1 `" VGAHS|cnt [26] $end
$var wire 1 a" VGAHS|cnt [25] $end
$var wire 1 b" VGAHS|cnt [24] $end
$var wire 1 c" VGAHS|cnt [23] $end
$var wire 1 d" VGAHS|cnt [22] $end
$var wire 1 e" VGAHS|cnt [21] $end
$var wire 1 f" VGAHS|cnt [20] $end
$var wire 1 g" VGAHS|cnt [19] $end
$var wire 1 h" VGAHS|cnt [18] $end
$var wire 1 i" VGAHS|cnt [17] $end
$var wire 1 j" VGAHS|cnt [16] $end
$var wire 1 k" VGAHS|cnt [15] $end
$var wire 1 l" VGAHS|cnt [14] $end
$var wire 1 m" VGAHS|cnt [13] $end
$var wire 1 n" VGAHS|cnt [12] $end
$var wire 1 o" VGAHS|cnt [11] $end
$var wire 1 p" VGAHS|cnt [10] $end
$var wire 1 q" VGAHS|cnt [9] $end
$var wire 1 r" VGAHS|cnt [8] $end
$var wire 1 s" VGAHS|cnt [7] $end
$var wire 1 t" VGAHS|cnt [6] $end
$var wire 1 u" VGAHS|cnt [5] $end
$var wire 1 v" VGAHS|cnt [4] $end
$var wire 1 w" VGAHS|cnt [3] $end
$var wire 1 x" VGAHS|cnt [2] $end
$var wire 1 y" VGAHS|cnt [1] $end
$var wire 1 z" VGAHS|cnt [0] $end
$upscope $end
$upscope $end
$enddefinitions $end
#0
$dumpvars
0!
1"
x#
x$
x%
x&
1'
x(
x)
0*
1+
x,
1-
1.
1/
x0
x1
x2
x3
x4
x5
x6
x7
x8
x9
x:
x;
x<
x=
x>
x?
0@
xA
1B
1C
xD
xE
xF
xG
xH
xI
xJ
xK
xL
xM
xN
xO
xP
xQ
xR
xS
xT
xU
xV
xW
xX
xY
xZ
x[
x\
x]
x^
x_
x`
xa
xb
xc
xd
xe
xf
xg
xh
xi
xj
xk
xl
xm
xn
xo
xp
xq
xr
xs
xt
xu
xv
xw
xx
xy
xz
x{
x|
x}
x~
x!!
x"!
x#!
x$!
x%!
x&!
x'!
x(!
x)!
x*!
x+!
x,!
x-!
x.!
x/!
x0!
x1!
x2!
x3!
x4!
x5!
x6!
x7!
x8!
x9!
1:!
1;!
x<!
x=!
x>!
x?!
x@!
xA!
xB!
xC!
xD!
xE!
xF!
xG!
xH!
xI!
xJ!
xK!
xL!
xM!
xN!
xO!
xP!
xQ!
xR!
xS!
xT!
xU!
xV!
xW!
xX!
xY!
xZ!
x[!
x\!
x]!
x^!
x_!
x`!
xa!
xb!
xc!
xd!
xe!
xf!
xg!
xh!
xi!
xj!
xk!
xl!
xm!
xn!
xo!
xp!
xq!
xr!
xs!
xt!
xu!
xv!
xw!
xx!
xy!
xz!
x{!
x|!
x}!
x~!
x!"
x""
x#"
x$"
x%"
x&"
x'"
x("
x)"
x*"
x+"
x,"
x-"
x."
x/"
x0"
x1"
x2"
x3"
x4"
x5"
x6"
17"
x8"
0:"
09"
xZ"
xY"
xX"
xW"
xV"
xU"
xT"
xS"
xR"
xQ"
xP"
xO"
xN"
xM"
xL"
xK"
xJ"
xI"
xH"
xG"
xF"
xE"
xD"
xC"
xB"
xA"
x@"
x?"
x>"
x="
x<"
x;"
xz"
xy"
xx"
xw"
xv"
xu"
xt"
xs"
xr"
xq"
xp"
xo"
xn"
xm"
xl"
xk"
xj"
xi"
xh"
xg"
xf"
xe"
xd"
xc"
xb"
xa"
x`"
x_"
x^"
x]"
x\"
x["
$end
#267
0u"
0t"
0r"
0p"
0n"
0g"
0b"
0d"
0e"
0`"
0^"
0T"
0U"
0R"
0P"
0Q"
0N"
0G"
0E"
0D"
0B"
0@"
0>"
0;"
0D
0["
0s"
0q"
0o"
0m"
0l"
0k"
0j"
0i"
0h"
0f"
0c"
0a"
0_"
0]"
0\"
0w"
0y"
0z"
0x"
0v"
02!
04!
06!
07!
09!
0>!
0?!
0B!
0F!
0G!
0I!
0J"
0<"
0I"
0H"
0F"
0C"
0A"
0?"
0="
0X"
0Z"
0Y"
0V"
0S"
0O"
0M"
0L"
0K"
0W"
01"
03"
#629
18"
#903
05!
#906
03!
#910
1@!
1E
#1211
0D!
#1224
06"
#1225
0H!
#1292
0W
0J!
#1297
1i!
#1298
1K
1N
0m!
1v!
#1301
1Y
1L!
#1302
0[
1e
0}
0N!
1X!
#1303
1Q
0S
0^
1h
1k
0m
0"!
09
0Q!
1[!
1^!
1y!
0{!
#1333
05"
#1348
1#!
0F
0o!
1n!
#1352
0I
0L
1\
0c
0f
0r!
0t!
1O!
0V!
0Y!
#1353
0O
0`
1_
0i
0w!
1R!
0S!
0\!
#1379
1A
#1383
0j!
#1408
1q!
#1412
1U
1}!
#1413
1H
1b
1U!
#1438
1s!
#1469
1k!
#1592
1~
#1593
0z
#1595
1{
#1609
0A!
#1621
1,!
#1635
14"
#1700
0E!
#1719
12"
#1760
1C!
#1798
0K!
0X
#1804
0#"
0,"
0&!
02
#1807
0M!
0Z
#1808
08
06
0-!
0q
0(!
#1809
0|!
0z!
0_!
0b!
0%"
0:
00
0n
0l
03
0t
0T
0R
#1854
04
0p!
0G
0$!
#1858
0Z!
0W!
0P!
0u!
0g
0d
0]
0M
0J
#1859
0]!
0T!
0`!
0x!
0j
0s
0a
0P
#1914
05
#1918
0~!
0V
#1919
07
0p
01
#1944
0""
#1975
0l!
#2003
0g!
#2031
1+"
#2039
0)"
0*"
#2061
18!
#2077
0-"
#2098
0!!
#2099
0+!
#2101
0|
#2509
0h!
#2717
0/!
#2975
0>
#2979
0."
#3021
1&"
#3153
1a!
#3195
0w
#3196
1<
#3206
1'!
#3276
1;
#3322
1$"
#3386
1c!
#3392
0=
#3400
1)!
#3478
0.!
#3482
0<!
#3536
1u
#3645
1r
#3653
1o
#3682
1%!
#3788
1!"
#3789
1v
#3836
0?
#3977
1d!
#4061
0/"
#4074
0=!
#4159
0("
#4385
1y
#4431
00!
#4524
0x
#4578
0e!
#4789
1'"
#4937
1*!
#4998
01!
#5000
1!
0)
#5054
00"
#5088
1f!
#6100
1@
#6217
0#
#6296
1%
#6439
0&
#6459
0$
#7592
19"
1:"
#7723
0(
#7985
07"
08"
#8735
0A
#10000
0"
0!
1)
#10954
0B
#11100
0@
#13652
0%
#15000
1!
0)
#16100
1@
#17592
09"
0:"
#17985
17"
#18221
18"
#18971
1A
#20000
0!
1)
#21100
0@
#23888
1%
#25000
1!
0)
#26100
1@
#27592
19"
1:"
#27985
07"
08"
#28735
0A
#30000
1"
0!
1)
#30954
1B
#31100
0@
#33652
0%
#35000
1!
0)
#36100
1@
#37592
09"
0:"
#37985
17"
#38221
18"
#38971
1A
#40000
0!
1)
#40784
1D
19!
#41100
0@
#41423
13!
#41427
0E
#43888
1%
#45000
1!
0)
#46100
1@
#47592
19"
1:"
#47985
07"
08"
#48735
0A
#50000
0!
1)
#51100
0@
#53652
0%
#55000
1!
0)
#56100
1@
#57592
09"
0:"
#57985
17"
#58221
18"
#58971
1A
#60000
0!
1)
#60781
1z"
#61100
0@
#62107
1z
#62135
0,!
#62613
1+!
#63888
1%
#64212
0y
#64268
1.!
#65000
1!
0)
#65038
1x
#65221
10!
#65788
11!
#66100
1@
#67592
19"
1:"
#67985
07"
08"
#68735
0A
#70000
0!
1)
#71100
0@
#73652
0%
#75000
1!
0)
#76100
1@
#77592
09"
0:"
#77985
17"
#78221
18"
#78971
1A
#80000
0!
1)
#80781
1y"
0z"
12!
#81100
0@
#82107
0z
#82135
1,!
#82480
08!
#83204
0.!
#83888
1%
#84157
00!
#84212
1y
#84724
01!
#85000
1!
0)
#86100
1@
#87592
19"
1:"
#87985
07"
08"
#88735
0A
#90000
0!
1)
#91100
0@
#93652
0%
#95000
1!
0)
#96100
1@
#97592
09"
0:"
#97985
17"
#98221
18"
#98971
1A
#100000
0!
1)
#100781
1z"
02!
#100784
14!
09!
#101100
0@
#101420
15!
#101423
03!
#102107
1z
#102135
0,!
#102193
0{
#102613
0+!
#102699
1|
#103204
1.!
#103888
1%
#104157
10!
#104212
0y
#104724
11!
#105000
1!
0)
#105038
0x
#106100
1@
#107592
19"
1:"
#107985
07"
08"
#108735
0A
#110000
0!
1)
#111100
0@
#113652
0%
#115000
1!
0)
#116100
1@
#117592
09"
0:"
#117985
17"
#118221
18"
#118971
1A
#120000
0!
1)
#120781
0y"
0z"
12!
#120783
1x"
#121100
0@
#121818
1}
#121845
0|
#122107
0z
#122109
1{
#122135
1,!
#122195
0}
#122615
1|
#123222
0.!
#123888
1%
#124175
00!
#124212
1y
#124742
01!
#125000
1!
0)
#126100
1@
#127592
19"
1:"
#127985
07"
08"
#128735
0A
#130000
0!
1)
#131100
0@
#133652
0%
#135000
1!
0)
#136100
1@
#137592
09"
0:"
#137985
17"
#138221
18"
#138971
1A
#140000
0!
1)
#140781
1z"
02!
#140784
04!
16!
#141100
0@
#141420
05!
#142107
1z
#142135
0,!
#142613
1+!
#143204
1.!
#143888
1%
#144157
10!
#144212
0y
#144268
0.!
#144724
11!
#145000
1!
0)
#145038
1x
#145221
00!
#145788
01!
#146100
1@
#147592
19"
1:"
#147985
07"
08"
#148735
0A
#150000
0!
1)
#151100
0@
#153652
0%
#155000
1!
0)
#156100
1@
#157592
09"
0:"
#157985
17"
#158221
18"
#158971
1A
#160000
0!
1)
#160781
1y"
0z"
#161100
0@
#162107
0z
#162135
1,!
#163204
1.!
#163888
1%
#164157
10!
#164212
1y
#164724
11!
#165000
1!
0)
#166100
1@
#167592
19"
1:"
#167985
07"
08"
#168735
0A
#170000
0!
1)
#171100
0@
#173652
0%
#175000
1!
0)
#176100
1@
#177592
09"
0:"
#177985
17"
#178221
18"
#178971
1A
#180000
0!
1)
#180781
1z"
12!
#181100
0@
#182107
1z
#182135
0,!
#182193
0{
#182279
1}
#182613
0+!
#182699
0|
#182785
1-!
#183204
0.!
#183888
1%
#184157
00!
#184172
1w
#184212
0y
#184724
01!
#185000
1!
0)
#185038
0x
#186100
1@
#187592
19"
1:"
#187985
07"
08"
#188735
0A
#190000
0!
1)
#191100
0@
#193652
0%
#195000
1!
0)
#196100
1@
#197592
09"
0:"
#197985
17"
#198221
18"
#198971
1A
#200000
0!
1)
#200781
1w"
0y"
0z"
02!
#200783
0x"
#200784
06!
17!
#201100
0@
#201416
18!
#201818
0}
#201845
1|
#202107
0z
#202109
1{
#202135
1,!
#202480
08!
#202615
0|
#203888
1%
#204212
1y
#205000
1!
0)
#206100
1@
#207592
19"
1:"
#207985
07"
08"
#208735
0A
#210000
0!
1)
#211100
0@
#213652
0%
#215000
1!
0)
#216100
1@
#217592
09"
0:"
#217985
17"
#218221
18"
#218971
1A
#220000
0!
1)
#220781
1z"
#221100
0@
#222107
1z
#222135
0,!
#222613
1+!
#223888
1%
#224212
0y
#225000
1!
0)
#225038
1x
#226100
1@
#227592
19"
1:"
#227985
07"
08"
#228735
0A
#230000
0!
1)
#231100
0@
#233652
0%
#235000
1!
0)
#236100
1@
#237592
09"
0:"
#237985
17"
#238221
18"
#238971
1A
#240000
0!
1)
#240781
1y"
0z"
#241100
0@
#242107
0z
#242135
1,!
#243208
1/!
#243888
1%
#243968
10!
#243973
1<!
#244212
1y
#244280
0v
#244535
11!
#244565
1=!
#244876
0y
#244884
0w
0x
#245000
1!
0)
#246100
1@
#247592
19"
1:"
#247985
07"
08"
#248735
0A
#250000
0!
1)
#251100
0@
#253652
0%
#255000
1!
0)
#256100
1@
#257592
09"
0:"
#257985
17"
#258221
18"
#258971
1A
#260000
0!
1)
#260781
0w"
0y"
12!
1>!
#261100
0@
#262133
0-!
#262136
0+!
#262480
18!
#263042
0/!
#263802
00!
#263807
0<!
#263888
1%
#264114
1v
#264369
01!
#264399
0=!
#264710
1y
#265000
1!
0)
#266100
1@
#267592
19"
1:"
#267985
07"
08"
#268735
0A
#270000
0!
1)
#271100
0@
#273652
0%
#275000
1!
0)
#276100
1@
#277592
09"
0:"
#277985
17"
#278221
18"
#278971
1A
#280000
0!
1)
#280773
13"
#280775
1?!
#280781
1z"
02!
0>!
#280784
07!
19!
#281100
0@
#281416
08!
#281418
0@!
#281423
13!
#281717
1D!
#282107
1z
#282117
1A!
#282135
0,!
#282480
18!
#282613
1+!
#283104
0A!
#283888
1%
#284212
0y
#284268
1.!
#285000
1!
0)
#285038
1x
#285221
10!
#285788
11!
#286100
1@
#287592
19"
1:"
#287985
07"
08"
#288735
0A
#290000
0!
1)
#291100
0@
#293652
0%
#295000
1!
0)
#296100
1@
#297592
09"
0:"
#297985
17"
#298221
18"
#298971
1A
#300000
0!
1)
#300781
1y"
0z"
12!
#301100
0@
#302107
0z
#302135
1,!
#302480
08!
#303204
0.!
#303888
1%
#304157
00!
#304212
1y
#304724
01!
#305000
1!
0)
#306100
1@
#307592
19"
1:"
#307985
07"
08"
#308735
0A
#310000
0!
1)
#311100
0@
#313652
0%
#315000
1!
0)
#316100
1@
#317592
09"
0:"
#317985
17"
#318221
18"
#318971
1A
#320000
0!
1)
#320781
1z"
02!
#320784
14!
09!
#321100
0@
#321420
15!
#321423
03!
#322107
1z
#322135
0,!
#322193
0{
#322613
0+!
#322699
1|
#323204
1.!
#323888
1%
#324157
10!
#324212
0y
#324724
11!
#325000
1!
0)
#325038
0x
#326100
1@
#327592
19"
1:"
#327985
07"
08"
#328735
0A
#330000
0!
1)
#331100
0@
#333652
0%
#335000
1!
0)
#336100
1@
#337592
09"
0:"
#337985
17"
#338221
18"
#338971
1A
#340000
0!
1)
#340781
0y"
0z"
12!
#340783
1x"
#341100
0@
#341818
1}
#341845
0|
#342107
0z
#342109
1{
#342135
1,!
#342195
0}
#342615
1|
#343222
0.!
#343888
1%
#344175
00!
#344212
1y
#344742
01!
#345000
1!
0)
#346100
1@
#347592
19"
1:"
#347985
07"
08"
#348735
0A
#350000
0!
1)
#351100
0@
#353652
0%
#355000
1!
0)
#356100
1@
#357592
09"
0:"
#357985
17"
#358221
18"
#358971
1A
#360000
0!
1)
#360781
1z"
02!
#360784
04!
16!
#361100
0@
#361420
05!
#362107
1z
#362135
0,!
#362613
1+!
#363204
1.!
#363888
1%
#364157
10!
#364212
0y
#364268
0.!
#364724
11!
#365000
1!
0)
#365038
1x
#365221
00!
#365788
01!
#366100
1@
#367592
19"
1:"
#367985
07"
08"
#368735
0A
#370000
0!
1)
#371100
0@
#373652
0%
#375000
1!
0)
#376100
1@
#377592
09"
0:"
#377985
17"
#378221
18"
#378971
1A
#380000
0!
1)
#380781
1y"
0z"
#381100
0@
#382107
0z
#382135
1,!
#383204
1.!
#383888
1%
#384157
10!
#384212
1y
#384724
11!
#385000
1!
0)
#386100
1@
#387592
19"
1:"
#387985
07"
08"
#388735
0A
#390000
0!
1)
#391100
0@
#393652
0%
#395000
1!
0)
#396100
1@
#397592
09"
0:"
#397985
17"
#398221
18"
#398971
1A
#400000
0!
1)
#400781
1z"
12!
#401100
0@
#402107
1z
#402135
0,!
#402193
0{
#402279
1}
#402613
0+!
#402699
0|
#402785
1-!
#403204
0.!
#403888
1%
#404157
00!
#404172
1w
#404212
0y
#404724
01!
#405000
1!
0)
#405038
0x
#406100
1@
#407592
19"
1:"
#407985
07"
08"
#408735
0A
#410000
0!
1)
#411100
0@
#413652
0%
#415000
1!
0)
#416100
1@
#417592
09"
0:"
#417985
17"
#418221
18"
#418971
1A
#420000
0!
1)
#420781
1w"
0y"
0z"
02!
#420783
0x"
#420784
06!
17!
#421100
0@
#421416
18!
#421818
0}
#421845
1|
#422107
0z
#422109
1{
#422135
1,!
#422480
08!
#422615
0|
#423888
1%
#424212
1y
#425000
1!
0)
#426100
1@
#427592
19"
1:"
#427985
07"
08"
#428735
0A
#430000
0!
1)
#431100
0@
#433652
0%
#435000
1!
0)
#436100
1@
#437592
09"
0:"
#437985
17"
#438221
18"
#438971
1A
#440000
0!
1)
#440781
1z"
#441100
0@
#442107
1z
#442135
0,!
#442613
1+!
#443888
1%
#444212
0y
#445000
1!
0)
#445038
1x
#446100
1@
#447592
19"
1:"
#447985
07"
08"
#448735
0A
#450000
0!
1)
#451100
0@
#453652
0%
#455000
1!
0)
#456100
1@
#457592
09"
0:"
#457985
17"
#458221
18"
#458971
1A
#460000
0!
1)
#460781
1y"
0z"
#461100
0@
#462107
0z
#462135
1,!
#463208
1/!
#463888
1%
#463968
10!
#463973
1<!
#464212
1y
#464280
0v
#464535
11!
#464565
1=!
#464876
0y
#464884
0w
0x
#465000
1!
0)
#466100
1@
#467592
19"
1:"
#467985
07"
08"
#468735
0A
#470000
0!
1)
#471100
0@
#473652
0%
#475000
1!
0)
#476100
1@
#477592
09"
0:"
#477985
17"
#478221
18"
#478971
1A
#480000
0!
1)
#480781
0w"
0y"
12!
1>!
#481100
0@
#482133
0-!
#482136
0+!
#482480
18!
#483042
0/!
#483104
1A!
#483802
00!
#483807
0<!
#483888
1%
#484114
1v
#484369
01!
#484399
0=!
#484710
1y
#485000
1!
0)
#486100
1@
#487592
19"
1:"
#487985
07"
08"
#488735
0A
#490000
0!
1)
#491100
0@
#493652
0%
#495000
1!
0)
#496100
1@
#497592
09"
0:"
#497985
17"
#498221
18"
#498971
1A
#500000
0!
1)
#500775
1B!
1Z"
#500781
1z"
02!
0>!
#500784
07!
19!
#501100
0@
